^D:\DOCUMENTS\SY20T1-BP2-OTG001-ILLENBERGER-ELISE\QUIZZES\Q01.V.2 - EMPEROR CARD\Q01.V.2 - EMPEROR CARD\DEBUG\SOURCE.OBJ
D:\DOCUMENTS\SY20T1-BP2-OTG001-ILLENBERGER-ELISE\QUIZZES\Q01.V.2 - EMPEROR CARD\DEBUG\Q01.V.2 - EMPEROR CARD.EXE
D:\DOCUMENTS\SY20T1-BP2-OTG001-ILLENBERGER-ELISE\QUIZZES\Q01.V.2 - EMPEROR CARD\DEBUG\Q01.V.2 - EMPEROR CARD.ILK
D:\DOCUMENTS\SY20T1-BP2-OTG001-ILLENBERGER-ELISE\QUIZZES\Q01.V.2 - EMPEROR CARD\DEBUG\Q01.V.2 - EMPEROR CARD.PDB
