^D:\DOCUMENTS\SY20T1-BP2-OTG001-ILLENBERGER-ELISE\EXCERCISES\EX3 - ILLENBERGER\EX3 - ILLENBERGER\DEBUG\SOURCE.OBJ
D:\DOCUMENTS\SY20T1-BP2-OTG001-ILLENBERGER-ELISE\EXCERCISES\EX3 - ILLENBERGER\DEBUG\EX3 - ILLENBERGER.EXE
D:\DOCUMENTS\SY20T1-BP2-OTG001-ILLENBERGER-ELISE\EXCERCISES\EX3 - ILLENBERGER\DEBUG\EX3 - ILLENBERGER.ILK
D:\DOCUMENTS\SY20T1-BP2-OTG001-ILLENBERGER-ELISE\EXCERCISES\EX3 - ILLENBERGER\DEBUG\EX3 - ILLENBERGER.PDB
