^D:\DOCUMENTS\SY20T1-BP2-OTG001-ILLENBERGER-ELISE\EXCERCISES\EXERCISE 1 BASPROG2\EXERCISE 1 BASPROG2\SOURCE.CPP
D:\DOCUMENTS\SY20T1-BP2-OTG001-ILLENBERGER-ELISE\EXCERCISES\EXERCISE 1 BASPROG2\EXERCISE 1 BASPROG2\DEBUG\VC142.PDB
D:\DOCUMENTS\SY20T1-BP2-OTG001-ILLENBERGER-ELISE\EXCERCISES\EXERCISE 1 BASPROG2\EXERCISE 1 BASPROG2\DEBUG\VC142.IDB
D:\DOCUMENTS\SY20T1-BP2-OTG001-ILLENBERGER-ELISE\EXCERCISES\EXERCISE 1 BASPROG2\EXERCISE 1 BASPROG2\DEBUG\SOURCE.OBJ
